*** Darwin 3x2 ***
Turn = 0.
  01
0 tr
1 tf
2 rh

Turn = 2.
  01
0 tt
1 tf
2 th

Turn = 4.
  01
0 tt
1 tt
2 tt

Turn = 6.
  01
0 tt
1 tt
2 tt

Turn = 8.
  01
0 tt
1 tt
2 tt

Turn = 10.
  01
0 tt
1 tt
2 tt

Turn = 12.
  01
0 tt
1 tt
2 tt

*** Darwin 4x6 ***
Turn = 0.
  012345
0 trfttt
1 .fhr.t
2 h.h.rh
3 hfthrt

Turn = 1.
  012345
0 trrttt
1 .rrtrt
2 h.t..t
3 hfthrt

Turn = 2.
  012345
0 trrrtt
1 .rtrtt
2 h.t..t
3 hftrrt

Turn = 3.
  012345
0 trrrtt
1 ..tttt
2 hrt..t
3 httrtt

Turn = 4.
  012345
0 ttrtrr
1 ..tttt
2 hrt..t
3 httrtt

Turn = 5.
  012345
0 tttttt
1 ..tttt
2 hrt..t
3 httrrt

Turn = 6.
  012345
0 tttttt
1 ..tttt
2 hrt.rt
3 httr.t

Turn = 7.
  012345
0 tttttt
1 ..ttrt
2 hrt.tt
3 httr.t

Turn = 8.
  012345
0 tttttt
1 ..tttt
2 hrt.tt
3 htt.tt

Turn = 9.
  012345
0 tttttt
1 ..tttt
2 hrt.tt
3 htt.tt

Turn = 10.
  012345
0 tttttt
1 ..tttt
2 hrt.tt
3 htt.tt

Turn = 11.
  012345
0 tttttt
1 ..tttt
2 hrt.tt
3 htt.tt

Turn = 12.
  012345
0 tttttt
1 ..tttt
2 hrt.tt
3 htt.tt

Turn = 13.
  012345
0 tttttt
1 ..tttt
2 hrt.tt
3 htt.tt

Turn = 14.
  012345
0 tttttt
1 ..tttt
2 hrt.tt
3 htt.tt

Turn = 15.
  012345
0 tttttt
1 ..tttt
2 hrt.tt
3 htt.tt

Turn = 16.
  012345
0 tttttt
1 ..tttt
2 hrt.tt
3 htt.tt

Turn = 17.
  012345
0 tttttt
1 ..tttt
2 hrt.tt
3 htt.tt

Turn = 18.
  012345
0 tttttt
1 ..tttt
2 hrt.tt
3 htt.tt

Turn = 19.
  012345
0 tttttt
1 ..tttt
2 hrt.tt
3 htt.tt

*** Darwin 2x6 ***
Turn = 0.
  012345
0 ffftrt
1 ththhf

Turn = 4.
  012345
0 tttttt
1 tttttt

Turn = 8.
  012345
0 tttttt
1 tttttt

Turn = 12.
  012345
0 tttttt
1 tttttt

Turn = 16.
  012345
0 tttttt
1 tttttt

*** Darwin 7x1 ***
Turn = 0.
  0
0 t
1 r
2 f
3 f
4 t
5 t
6 t

Turn = 5.
  0
0 r
1 r
2 f
3 t
4 t
5 t
6 t

Turn = 10.
  0
0 r
1 r
2 r
3 t
4 t
5 t
6 t

Turn = 15.
  0
0 r
1 r
2 t
3 t
4 t
5 t
6 t

*** Darwin 5x9 ***
Turn = 0.
  012345678
0 r.h.hhhf.
1 .h.rr.tff
2 tfhthfh..
3 .fthrrhfr
4 hfh.trf.f

Turn = 1.
  012345678
0 rh..rh.f.
1 ..rrrttff
2 tfttrf.h.
3 .fttrrrfr
4 hfh.trf.f

Turn = 2.
  012345678
0 rh..rh.f.
1 ..rrrttff
2 tttrrt..h
3 .tttrrrfr
4 hfh.trrr.

Turn = 3.
  012345678
0 rr.rh..f.
1 ..rrrttff
2 tttrrt..h
3 .tttrrrf.
4 hth.trrrr

Turn = 4.
  012345678
0 rrrh...t.
1 ..rrrtttf
2 tttrtt..h
3 .ttttrrr.
4 htt.tttrr

Turn = 5.
  012345678
0 rrrh...t.
1 ..rrrtttf
2 tttttr..h
3 .ttttrrr.
4 htt.ttrrr

Turn = 6.
  012345678
0 rrrh...t.
1 ..rtrtttf
2 ttttrr..h
3 .tttttrrr
4 htt.ttrr.

Turn = 7.
  012345678
0 r.rr...t.
1 .rttrtttf
2 ttttrr..r
3 .ttttttrr
4 ttt.ttrr.

Turn = 8.
  012345678
0 r.rr...t.
1 .rrtrrttt
2 trtttr..r
3 .ttttttrr
4 ttt.ttt.r

Turn = 9.
  012345678
0 ..rrr..t.
1 rrrr.rttr
2 trtttt.rr
3 .tttttt.r
4 ttt.ttt.r

Turn = 10.
  012345678
0 .r.rr.rt.
1 rrrr.r.rr
2 .trttt.rr
3 ttttttt.r
4 ttt.ttt.r

Turn = 11.
  012345678
0 r.rrr.rt.
1 .rrr..trr
2 rt.ttt.rr
3 ttttttt.r
4 ttt.tttr.

Turn = 12.
  012345678
0 r.rrrr.t.
1 .rrr..trr
2 rrt.ttr.r
3 rrttttt..
4 ttt.ttrrr

Turn = 13.
  012345678
0 rr.rrr.t.
1 .rr...trr
2 rtrrtrr.r
3 rrrtttt..
4 ttt.ttrrr

Turn = 14.
  012345678
0 rrrr...t.
1 r...rtttr
2 rrrrttr.r
3 rrrtttt..
4 rrr.tttrr

Turn = 15.
  012345678
0 r.r.r..t.
1 rr..rtttt
2 rrrrrrr.t
3 rrrtttt..
4 rr.ttttrr

Turn = 16.
  012345678
0 rr.r.r.t.
1 rr..rtttt
2 .rrrrrt.t
3 rr.ttt.r.
4 rrrtttttt

Turn = 17.
  012345678
0 r.r.r.rt.
1 rr.r.tttt
2 .r.rrtt.t
3 rrrtr.r.r
4 rrrtttttt

Turn = 18.
  012345678
0 rr.r.rrr.
1 rrr..tttt
2 ...rrtt.t
3 rrrtr..tr
4 rrrtrrttt

*** Darwin 2x3 ***
Turn = 0.
  012
0 rhr
1 fhr

Turn = 5.
  012
0 rrr
1 rrr

Turn = 10.
  012
0 rrr
1 rrr

Turn = 15.
  012
0 rrr
1 rrr

*** Darwin 2x9 ***
Turn = 0.
  012345678
0 tftf.fhfh
1 hhrhrhfft

Turn = 4.
  012345678
0 tttfrfrft
1 ttthr.rtt

Turn = 8.
  012345678
0 ttttrr.tt
1 ttttrrrtt

Turn = 12.
  012345678
0 ttttt.rrr
1 tttttttrr

Turn = 16.
  012345678
0 ttttt.rrr
1 tttttrrrr

*** Darwin 3x9 ***
Turn = 0.
  012345678
0 ffr.hftfr
1 ffftrfhfr
2 hfthtfhth

Turn = 5.
  012345678
0 rtt.ttrrr
1 ftttttrtr
2 hrrttthtt

Turn = 10.
  012345678
0 rrt.tttrr
1 rrrtttttt
2 rrttttttt

Turn = 15.
  012345678
0 rr.rttttt
1 rrrtttttt
2 rrttttttt

*** Darwin 8x9 ***
Turn = 0.
  012345678
0 fhtr.f..t
1 .hff...t.
2 ..f..r...
3 rh.tf...h
4 f.hthh.t.
5 .f..f.hh.
6 h.f..h..r
7 h.f.t..h.

Turn = 5.
  012345678
0 rttt.f..t
1 r.tt...t.
2 ..tt.....
3 ..ttth...
4 fhtttt.tt
5 .f..tt.t.
6 h.f......
7 h.f.ttt..

Turn = 10.
  012345678
0 rrrt.f..t
1 r.tt...t.
2 ..tt.....
3 ..tttt...
4 fttttt.tt
5 .t..tt.t.
6 h.f......
7 h.f.ttt..

Turn = 15.
  012345678
0 ...t.f..t
1 .ttt...t.
2 r.tt.....
3 rttttt...
4 rttttt.tt
5 .t..tt.t.
6 h.f......
7 h.f.ttt..

*** Darwin 5x1 ***
Turn = 0.
  0
0 r
1 h
2 r
3 h
4 h

Turn = 3.
  0
0 r
1 r
2 r
3 h
4 h

Turn = 6.
  0
0 r
1 r
2 r
3 h
4 h

Turn = 9.
  0
0 r
1 r
2 r
3 r
4 r

*** Darwin 4x7 ***
Turn = 0.
  0123456
0 ...f.r.
1 ..f.ht.
2 ...t.rr
3 ....f.r

Turn = 2.
  0123456
0 ...fh.r
1 ..f..t.
2 ...t.rr
3 ....f.r

Turn = 4.
  0123456
0 ...fh.r
1 ..f..t.
2 ...t.tt
3 ....rr.

Turn = 6.
  0123456
0 ...fh..
1 ..f.rtt
2 ...t.tt
3 ...r...

Turn = 8.
  0123456
0 ...fr..
1 ..f.rtt
2 ...t.tt
3 .r.....

Turn = 10.
  0123456
0 ...f..r
1 ..rr.tt
2 ...t.tt
3 r......

Turn = 12.
  0123456
0 ...f..r
1 rr...tr
2 ...t.tt
3 r......

*** Darwin 2x9 ***
Turn = 0.
  012345678
0 .h.f.fr.f
1 .trtr..t.

Turn = 5.
  012345678
0 ..tt.f..f
1 rr.trr.t.

Turn = 10.
  012345678
0 rrrr...r.
1 ...rt.ttr

*** Darwin 4x2 ***
Turn = 0.
  01
0 hf
1 tt
2 rh
3 hf

Turn = 5.
  01
0 tt
1 tt
2 tt
3 tt

Turn = 10.
  01
0 tt
1 tt
2 tt
3 tt

Turn = 15.
  01
0 tt
1 tt
2 tt
3 tt

*** Darwin 2x4 ***
Turn = 0.
  0123
0 rhfh
1 rftf

Turn = 3.
  0123
0 rhtt
1 rrtt

Turn = 6.
  0123
0 rrrt
1 rrrt

Turn = 9.
  0123
0 rrtt
1 rrtt

Turn = 12.
  0123
0 rrrt
1 rrrt

*** Darwin 4x9 ***
Turn = 0.
  012345678
0 hrfhf.hth
1 ...h.t.r.
2 .r.hh...r
3 ..trr..f.

Turn = 4.
  012345678
0 rrrhrrrtt
1 .r...t..r
2 h.r...r..
3 r...rr.r.

Turn = 8.
  012345678
0 rr.h.rrr.
1 r..rr.rr.
2 r..rr....
3 rr...rr.r

Turn = 12.
  012345678
0 rrrrrr..r
1 r....rr.r
2 r.rrr....
3 ..rr.r..r

*** Darwin 3x2 ***
Turn = 0.
  01
0 rr
1 rf
2 ff

Turn = 2.
  01
0 rr
1 rr
2 ff

Turn = 4.
  01
0 rr
1 rr
2 rr

Turn = 6.
  01
0 rr
1 rr
2 rr

Turn = 8.
  01
0 rr
1 rr
2 rr

Turn = 10.
  01
0 rr
1 rr
2 rr

Turn = 12.
  01
0 rr
1 rr
2 rr

Turn = 14.
  01
0 rr
1 rr
2 rr

Turn = 16.
  01
0 rr
1 rr
2 rr

*** Darwin 1x3 ***
Turn = 0.
  012
0 rhr

Turn = 3.
  012
0 rrr

Turn = 6.
  012
0 rrr

Turn = 9.
  012
0 rrr

*** Darwin 5x6 ***
Turn = 0.
  012345
0 .hffft
1 htrtth
2 hfhhft
3 r.ftth
4 frtf.h

Turn = 1.
  012345
0 .hffft
1 htrttt
2 rthrrt
3 r.rrrh
4 frrf.h

Turn = 2.
  012345
0 .hffft
1 rtrttt
2 rthrrr
3 r.rrrh
4 frrf.h

Turn = 3.
  012345
0 .hffft
1 rrrttr
2 rthrrr
3 rrrrrr
4 fr.r.h

Turn = 4.
  012345
0 .hfrft
1 rrrtrr
2 rrhrrr
3 rrrrrr
4 rr..rr

Turn = 5.
  012345
0 rhfrtt
1 .rrrrr
2 rrhrrr
3 rr.rrr
4 rrr.rr

Turn = 6.
  012345
0 rhfrtt
1 r.rrrr
2 rrhrrr
3 rr..rr
4 rrrrrr

Turn = 7.
  012345
0 rhrrtt
1 r.rrrr
2 rrrrrr
3 r.r.rr
4 rrrrrr

Turn = 8.
  012345
0 rhrrtt
1 r.rrrr
2 rrrrrr
3 r.rrrr
4 rr.rrr

Turn = 9.
  012345
0 rrrrtt
1 .rrrrr
2 rrrrrr
3 .rrrrr
4 rr.rrr

Turn = 10.
  012345
0 rrrrrr
1 .rrrrr
2 rrrrrr
3 .rrrrr
4 rrr.rr

Turn = 11.
  012345
0 .rrrrr
1 rrrrrr
2 rrrrrr
3 .rrrrr
4 rrrrr.

Turn = 12.
  012345
0 rrrrrr
1 rr.rrr
2 rrrrrr
3 rrrrrr
4 .rrrr.

Turn = 13.
  012345
0 rrrrrr
1 rrrrrr
2 rr.rrr
3 rrrrr.
4 .rrrrr

*** Darwin 8x3 ***
Turn = 0.
  012
0 .rf
1 fff
2 trr
3 rrt
4 rth
5 thr
6 tft
7 hrr

Turn = 2.
  012
0 .rf
1 rrr
2 rrr
3 rrt
4 rrt
5 ttt
6 ttr
7 trr

Turn = 4.
  012
0 rrr
1 r.r
2 rrr
3 rrt
4 rtt
5 ttt
6 ttt
7 trr

Turn = 6.
  012
0 rrr
1 rrr
2 rrr
3 r.r
4 trr
5 ttt
6 ttt
7 trr

Turn = 8.
  012
0 rrr
1 r.r
2 rrr
3 rrr
4 ttt
5 ttt
6 ttt
7 ttt

Turn = 10.
  012
0 rrr
1 rrr
2 rr.
3 rrt
4 rrt
5 ttt
6 ttt
7 ttt

Turn = 12.
  012
0 rrr
1 rrr
2 rrr
3 tr.
4 ttt
5 ttt
6 ttt
7 ttt
